…
    ## Google Maps API Terms of Service: http://developers.google.com/maps/terms.

    ## Please cite ggmap if you use it: see citation("ggmap") for details.

Follow the steps in the Dates tutorial to read in the code violation data and drop all variables except violation dates, violation types, and their coordinates (lat,lon).

``` r
data.url <- "https://raw.githubusercontent.com/lecy/code-orange/master/data/code%20violations.csv"
dat <- read.csv( data.url, stringsAsFactors=F)
dat <- tbl_df(dat)
dat <- select(dat, Complaint.Type, Violation.Date, lat, lon) %>% tbl_df
dat
```

    ## # A tibble: 51,427 × 4
    ##               Complaint.Type   Violation.Date      lat       lon
    ##                        <chr>            <chr>    <dbl>     <dbl>
    ## 1      Illegal Trash Set Out 12/22/2011 10:25 43.02400 -76.14822
    ## 2      Illegal Trash Set Out 12/22/2011 10:26 43.02400 -76.14822
    ## 3      Illegal Trash Set Out  12/22/2011 7:30 43.02400 -76.14822
    ## 4                    Heating   2/2/2012 15:57 43.05106 -76.17247
    ## 5                    Heating   2/2/2012 15:55 43.05106 -76.17247
    ## 6                    Heating   2/2/2012 16:03 43.05106 -76.17247
    ## 7                    Heating   2/2/2012 16:00 43.05106 -76.17247
    ## 8    Tree/Limb/Stump Removal   2/2/2012 17:08 43.03547 -76.14819
    ## 9  Trash/Debris-Private, Occ  1/19/2012 11:06 43.05252 -76.14264
    ## 10  Property Maintenance-Int   1/26/2012 9:15 43.06114 -76.12280
    ## # ... with 51,417 more rows
…
dat <- mutate(dat, days)
dat <- mutate(dat, weeks)
dat <- mutate(dat, months)
dat <- mutate(dat, years)
```

Select a category of code violations other than bed bugs and create a new dataset with all other data dropped.

``` r
fires <- filter(dat, dat$Complaint.Type=="Fire Safety")
fires
```

    ## # A tibble: 849 × 8
    ##    Complaint.Type Violation.Date      lat       lon  days weeks months
    ##             <chr>         <date>    <dbl>     <dbl> <ord> <chr>  <ord>
    ## 1     Fire Safety     2013-03-12 43.02081 -76.13610   Tue    10    Mar
    ## 2     Fire Safety     2013-03-12 43.02081 -76.13610   Tue    10    Mar
    ## 3     Fire Safety     2014-01-27 43.03848 -76.12941   Mon    04    Jan
    ## 4     Fire Safety     2014-01-27 43.03848 -76.12941   Mon    04    Jan
    ## 5     Fire Safety     2014-01-27 43.03848 -76.12941   Mon    04    Jan
    ## 6     Fire Safety     2014-01-27 43.03848 -76.12941   Mon    04    Jan
    ## 7     Fire Safety     2014-01-27 43.03848 -76.12941   Mon    04    Jan
    ## 8     Fire Safety     2014-01-27 43.03848 -76.12941   Mon    04    Jan
    ## 9     Fire Safety     2014-01-27 43.03848 -76.12941   Mon    04    Jan
    ## 10    Fire Safety     2014-01-27 43.03848 -76.12941   Mon    04    Jan
    ## # ... with 839 more rows, and 1 more variables: years <chr>
…
